match_id,order,player_id,position,at_bat,at_stroke,hits,doubles,triples,homerun,rbi,run,steal,walk,plunked,strike_out,sacrifice_bunt,sacrifice_fly,
2018111002,1,4,右,4,3,0,0,0,0,0,1,0,1,0,2,0,0,
2018111002,2,23,左,4,3,2,2,0,0,0,1,0,1,0,0,0,0,
2018111002,3,1,遊,3,3,1,1,0,0,1,1,0,0,0,2,0,0,
2018111002,4,6,投,3,3,1,0,0,0,1,0,0,0,0,0,0,0,
2018111002,5,14,三,3,3,0,0,0,0,0,1,2,0,0,0,0,0,
2018111002,6,21,DH,3,3,1,0,0,0,0,2,1,0,0,0,0,0,
2018111002,7,9,一,2,2,0,0,0,0,0,1,0,0,0,0,0,0,
2018111002,8,20,中,3,3,1,1,0,0,0,0,0,0,0,0,0,0,
2018111002,9,16,二,3,2,1,0,0,0,1,0,0,0,0,0,0,1,
2018111002,10,5,捕,3,3,0,0,0,0,0,0,0,0,0,0,0,0,
